992
320 -48 608
200 -56 720
72 -24 -40 832
-24 -40 -48 -24 64 -40 704
64 -40 -48 256 -24 16 -8 480
-32 -16 -32 264 -24 584
992
-24 -8 -24 16 -32 -40 800
32 -16 16 -56 -280 552
992
992
992
48 -32 -32 -48 800
184 -192 600
272 -40 664
56 -40 -272 600
272 -40 -48 608
40 -48 888
48 -32 -40 848
